%!PS-Adobe-3.0 EPSF-3.0
%%Creator: cairo 1.12.16 (http://cairographics.org)
%%CreationDate: Fri Sep 26 11:45:58 2014
%%Pages: 1
%%DocumentData: Clean7Bit
%%LanguageLevel: 2
%%BoundingBox: 0 -1 241 170
%%EndComments
%%BeginProlog
save
50 dict begin
/q { gsave } bind def
/Q { grestore } bind def
/cm { 6 array astore concat } bind def
/w { setlinewidth } bind def
/J { setlinecap } bind def
/j { setlinejoin } bind def
/M { setmiterlimit } bind def
/d { setdash } bind def
/m { moveto } bind def
/l { lineto } bind def
/c { curveto } bind def
/h { closepath } bind def
/re { exch dup neg 3 1 roll 5 3 roll moveto 0 rlineto
      0 exch rlineto 0 rlineto closepath } bind def
/S { stroke } bind def
/f { fill } bind def
/f* { eofill } bind def
/n { newpath } bind def
/W { clip } bind def
/W* { eoclip } bind def
/BT { } bind def
/ET { } bind def
/pdfmark where { pop globaldict /?pdfmark /exec load put }
    { globaldict begin /?pdfmark /pop load def /pdfmark
    /cleartomark load def end } ifelse
/BDC { mark 3 1 roll /BDC pdfmark } bind def
/EMC { mark /EMC pdfmark } bind def
/cairo_store_point { /cairo_point_y exch def /cairo_point_x exch def } def
/Tj { show currentpoint cairo_store_point } bind def
/TJ {
  {
    dup
    type /stringtype eq
    { show } { -0.001 mul 0 cairo_font_matrix dtransform rmoveto } ifelse
  } forall
  currentpoint cairo_store_point
} bind def
/cairo_selectfont { cairo_font_matrix aload pop pop pop 0 0 6 array astore
    cairo_font exch selectfont cairo_point_x cairo_point_y moveto } bind def
/Tf { pop /cairo_font exch def /cairo_font_matrix where
      { pop cairo_selectfont } if } bind def
/Td { matrix translate cairo_font_matrix matrix concatmatrix dup
      /cairo_font_matrix exch def dup 4 get exch 5 get cairo_store_point
      /cairo_font where { pop cairo_selectfont } if } bind def
/Tm { 2 copy 8 2 roll 6 array astore /cairo_font_matrix exch def
      cairo_store_point /cairo_font where { pop cairo_selectfont } if } bind def
/g { setgray } bind def
/rg { setrgbcolor } bind def
/d1 { setcachedevice } bind def
%%EndProlog
%%Page: 1 1
%%BeginPageSetup
%%PageBoundingBox: 0 -1 241 170
%%EndPageSetup
q 0 -1 241 171 rectclip q
0 g
2.4 w
0 J
0 j
[] 0.0 d
4 M q 1 0 0 -1 0 169.198486 cm
59.441 84.555 m 123.441 139.41 l 198.867 102.84 l 170.297 20.555 l 54.867
 29.695 l h
S Q
120.918 22.734 m 120.918 25.066 119.789 25.73 119.055 25.73 c 117.992 25.73
 116.926 24.597 116.926 23.667 c 116.926 23.132 117.125 22.866 117.594 22.402
 c 118.523 21.538 119.055 20.472 119.055 18.941 c 119.055 17.144 116.461
 7.429 111.535 7.429 c 109.34 7.429 108.344 8.894 108.344 11.156 c 108.344
 13.484 109.539 16.613 110.805 20.14 c 111.137 20.87 111.336 21.472 111.336
 22.269 c 111.336 24.132 110.004 25.73 107.875 25.73 c 103.883 25.73 102.285
 19.538 102.285 19.206 c 102.285 18.741 102.684 18.741 102.75 18.741 c 103.219
 18.741 103.219 18.874 103.418 19.538 c 104.68 23.8 106.477 24.796 107.742
 24.796 c 108.074 24.796 108.809 24.796 108.809 23.468 c 108.809 22.402 
108.344 21.202 108.074 20.472 c 106.211 15.546 105.68 13.616 105.68 11.753
 c 105.68 7.163 109.406 6.495 111.336 6.495 c 118.457 6.495 120.918 20.538
 120.918 22.734 c h
f
137.293 5.456 m 137.293 6.523 l 133.969 6.523 l 133.969 19.765 l 133.969
 20.363 133.969 20.632 133.367 20.632 c 132.969 20.632 132.836 20.632 132.57
 20.163 c 122.719 6.523 l 122.719 5.456 l 131.504 5.456 l 131.504 3.062 
l 131.504 1.995 131.504 1.663 129.043 1.663 c 128.242 1.663 l 128.242 0.601
 l 129.773 0.667 131.637 0.734 132.703 0.734 c 133.836 0.734 135.699 0.667
 137.227 0.601 c 137.227 1.663 l 136.43 1.663 l 133.969 1.663 133.969 1.995
 133.969 3.062 c 133.969 5.456 l h
131.703 17.37 m 131.703 6.523 l 123.852 6.523 l h
f
143.098 17.171 m 144.629 16.769 145.492 16.769 145.957 16.769 c 149.883
 16.769 152.215 19.433 152.215 19.898 c 152.215 20.23 152.016 20.296 151.883
 20.296 c 151.816 20.296 151.75 20.296 151.613 20.23 c 150.883 19.964 149.352
 19.366 147.156 19.366 c 146.293 19.366 144.762 19.433 142.832 20.163 c 
142.496 20.296 142.43 20.296 142.43 20.296 c 142.031 20.296 142.031 19.964
 142.031 19.499 c 142.031 10.781 l 142.031 10.249 142.031 9.917 142.496 
9.917 c 142.766 9.917 142.832 9.917 143.098 10.316 c 144.359 11.913 146.223
 12.179 147.223 12.179 c 149.02 12.179 149.816 10.781 149.953 10.515 c 150.484
 9.515 150.684 8.386 150.684 6.656 c 150.684 5.788 150.684 4.058 149.75 
2.73 c 149.02 1.663 147.754 0.933 146.293 0.933 c 144.359 0.933 142.363 
1.995 141.633 3.991 c 142.766 3.925 143.363 4.659 143.363 5.456 c 143.363
 6.722 142.23 6.921 141.832 6.921 c 141.832 6.921 140.367 6.921 140.367 
5.323 c 140.367 2.663 142.832 -0.001 146.359 -0.001 c 150.152 -0.001 153.477
 2.796 153.477 6.589 c 153.477 9.917 150.949 12.976 147.289 12.976 c 145.957
 12.976 144.426 12.71 143.098 11.581 c h
f
38.027 87.781 m 38.027 90.109 36.895 90.773 36.164 90.773 c 35.098 90.773
 34.035 89.644 34.035 88.71 c 34.035 88.179 34.234 87.913 34.699 87.448 
c 35.633 86.581 36.164 85.515 36.164 83.988 c 36.164 82.191 33.566 72.472
 28.645 72.472 c 26.445 72.472 25.449 73.937 25.449 76.198 c 25.449 78.531
 26.648 81.656 27.91 85.183 c 28.242 85.917 28.445 86.515 28.445 87.312 
c 28.445 89.175 27.113 90.773 24.984 90.773 c 20.988 90.773 19.395 84.585
 19.395 84.253 c 19.395 83.784 19.793 83.784 19.859 83.784 c 20.324 83.784
 20.324 83.921 20.523 84.585 c 21.789 88.843 23.586 89.843 24.852 89.843
 c 25.184 89.843 25.914 89.843 25.914 88.511 c 25.914 87.448 25.449 86.249
 25.184 85.515 c 23.32 80.593 22.785 78.663 22.785 76.8 c 22.785 72.206 
26.512 71.542 28.445 71.542 c 35.562 71.542 38.027 85.581 38.027 87.781 
c h
f
46.82 75.558 m 49.148 75.558 50.812 73.964 50.812 70.769 c 50.812 67.109
 48.617 65.976 46.953 65.976 c 45.754 65.976 43.094 66.308 41.895 68.105
 c 43.293 68.105 43.625 69.105 43.625 69.769 c 43.625 70.702 42.895 71.366
 41.961 71.366 c 41.164 71.366 40.297 70.835 40.297 69.636 c 40.297 66.843
 43.359 65.046 46.953 65.046 c 51.078 65.046 53.941 67.839 53.941 70.769
 c 53.941 73.097 52.078 75.425 48.816 76.093 c 51.879 77.222 53.008 79.421
 53.008 81.284 c 53.008 83.613 50.348 85.343 47.02 85.343 c 43.758 85.343
 41.23 83.745 41.23 81.351 c 41.23 80.351 41.895 79.82 42.762 79.82 c 43.691
 79.82 44.289 80.484 44.289 81.284 c 44.289 82.148 43.691 82.812 42.762 
82.882 c 43.824 84.144 45.82 84.476 46.953 84.476 c 48.285 84.476 50.148
 83.812 50.148 81.284 c 50.148 80.019 49.746 78.62 48.949 77.757 c 48.016
 76.624 47.152 76.558 45.688 76.425 c 44.957 76.359 44.891 76.359 44.758
 76.359 c 44.691 76.359 44.422 76.292 44.422 75.96 c 44.422 75.558 44.691
 75.558 45.223 75.558 c h
f
224.289 66.972 m 224.289 69.3 223.156 69.964 222.426 69.964 c 221.359 69.964
 220.297 68.835 220.297 67.902 c 220.297 67.37 220.496 67.105 220.961 66.64
 c 221.895 65.773 222.426 64.71 222.426 63.179 c 222.426 61.382 219.828 
51.663 214.906 51.663 c 212.711 51.663 211.711 53.128 211.711 55.39 c 211.711
 57.722 212.91 60.847 214.172 64.374 c 214.508 65.109 214.707 65.706 214.707
 66.507 c 214.707 68.37 213.375 69.964 211.246 69.964 c 207.254 69.964 205.656
 63.777 205.656 63.445 c 205.656 62.98 206.055 62.98 206.121 62.98 c 206.586
 62.98 206.586 63.113 206.785 63.777 c 208.051 68.034 209.848 69.034 211.113
 69.034 c 211.445 69.034 212.176 69.034 212.176 67.702 c 212.176 66.64 211.711
 65.441 211.445 64.71 c 209.582 59.784 209.047 57.855 209.047 55.991 c 209.047
 51.398 212.777 50.734 214.707 50.734 c 221.828 50.734 224.289 64.777 224.289
 66.972 c h
f
235.477 55.55 m 237.805 56.683 239.27 58.077 239.27 60.144 c 239.27 63.003
 236.277 64.534 233.414 64.534 c 230.152 64.534 227.492 62.406 227.492 59.609
 c 227.492 58.214 228.156 57.214 228.688 56.616 c 229.223 55.948 229.422
 55.816 231.152 54.82 c 229.488 54.085 226.559 52.488 226.559 49.363 c 226.559
 46.101 229.953 44.238 233.348 44.238 c 237.141 44.238 240.203 46.632 240.203
 49.827 c 240.203 51.823 239.07 53.488 237.34 54.484 c 236.941 54.753 235.941
 55.284 235.477 55.55 c h
230.684 58.347 m 229.887 58.812 229.09 59.609 229.09 60.741 c 229.09 62.605
 231.219 63.671 233.348 63.671 c 235.676 63.671 237.738 62.206 237.738 60.144
 c 237.738 57.48 234.613 56.148 234.613 56.148 c 234.547 56.148 234.48 56.148
 234.277 56.281 c h
232.082 54.218 m 236.211 51.89 l 236.941 51.425 238.406 50.558 238.406 
48.827 c 238.406 46.566 235.941 45.167 233.414 45.167 c 230.684 45.167 228.355
 46.964 228.355 49.363 c 228.355 51.558 229.953 53.288 232.082 54.218 c 
h
f
190.691 166.202 m 190.691 168.534 189.559 169.198 188.828 169.198 c 187.762
 169.198 186.699 168.066 186.699 167.136 c 186.699 166.605 186.898 166.335
 187.363 165.87 c 188.297 165.007 188.828 163.941 188.828 162.409 c 188.828
 160.613 186.234 150.898 181.309 150.898 c 179.113 150.898 178.113 152.363
 178.113 154.624 c 178.113 156.952 179.312 160.081 180.574 163.609 c 180.91
 164.339 181.109 164.941 181.109 165.738 c 181.109 167.601 179.777 169.198
 177.648 169.198 c 173.656 169.198 172.059 163.011 172.059 162.675 c 172.059
 162.21 172.457 162.21 172.523 162.21 c 172.988 162.21 172.988 162.343 173.188
 163.011 c 174.453 167.269 176.25 168.265 177.516 168.265 c 177.848 168.265
 178.578 168.265 178.578 166.937 c 178.578 165.87 178.113 164.671 177.848
 163.941 c 175.984 159.015 175.453 157.085 175.453 155.222 c 175.453 150.632
 179.18 149.964 181.109 149.964 c 188.23 149.964 190.691 164.007 190.691
 166.202 c h
f
206.336 149.46 m 205.336 149.46 l 205.27 148.792 204.938 147.062 204.539
 146.796 c 204.336 146.597 202.074 146.597 201.609 146.597 c 196.152 146.597
 l 199.281 149.327 200.344 150.191 202.074 151.589 c 204.27 153.32 206.336
 155.183 206.336 157.976 c 206.336 161.57 203.207 163.769 199.414 163.769
 c 195.754 163.769 193.223 161.171 193.223 158.445 c 193.223 156.98 194.488
 156.781 194.82 156.781 c 195.488 156.781 196.352 157.312 196.352 158.378
 c 196.352 158.909 196.152 159.972 194.621 159.972 c 195.555 162.038 197.551
 162.702 198.949 162.702 c 201.941 162.702 203.473 160.374 203.473 157.976
 c 203.473 155.382 201.609 153.386 200.676 152.32 c 193.559 145.198 l 193.223
 144.933 193.223 144.866 193.223 144.07 c 205.469 144.07 l h
f
218.191 162.968 m 218.191 163.769 218.191 163.769 217.328 163.769 c 215.398
 161.902 212.734 161.902 211.539 161.902 c 211.539 160.839 l 212.203 160.839
 214.199 160.839 215.797 161.636 c 215.797 146.531 l 215.797 145.531 215.797
 145.132 212.867 145.132 c 211.738 145.132 l 211.738 144.07 l 212.27 144.07
 215.93 144.202 216.996 144.202 c 217.926 144.202 221.652 144.07 222.32 
144.07 c 222.32 145.132 l 221.188 145.132 l 218.191 145.132 218.191 145.531
 218.191 146.531 c h
f
18.633 161.593 m 18.633 163.921 17.504 164.585 16.77 164.585 c 15.707 164.585
 14.641 163.456 14.641 162.523 c 14.641 161.991 14.84 161.726 15.305 161.257
 c 16.238 160.394 16.77 159.327 16.77 157.8 c 16.77 156.003 14.176 146.284
 9.25 146.284 c 7.055 146.284 6.055 147.749 6.055 150.011 c 6.055 152.343
 7.254 155.468 8.52 158.995 c 8.852 159.73 9.051 160.327 9.051 161.124 c
 9.051 162.988 7.719 164.585 5.59 164.585 c 1.598 164.585 0 158.398 0 158.066
 c 0 157.597 0.398 157.597 0.465 157.597 c 0.934 157.597 0.934 157.734 1.133
 158.398 c 2.395 162.656 4.191 163.656 5.457 163.656 c 5.789 163.656 6.523
 163.656 6.523 162.323 c 6.523 161.257 6.055 160.062 5.789 159.327 c 3.926
 154.406 3.395 152.476 3.395 150.613 c 3.395 146.019 7.121 145.355 9.051
 145.355 c 16.172 145.355 18.633 159.394 18.633 161.593 c h
f
27.422 149.37 m 29.75 149.37 31.414 147.777 31.414 144.581 c 31.414 140.921
 29.219 139.788 27.555 139.788 c 26.359 139.788 23.695 140.12 22.496 141.917
 c 23.895 141.917 24.227 142.917 24.227 143.581 c 24.227 144.515 23.496 
145.179 22.562 145.179 c 21.766 145.179 20.898 144.648 20.898 143.448 c 
20.898 140.656 23.961 138.859 27.555 138.859 c 31.68 138.859 34.543 141.652
 34.543 144.581 c 34.543 146.909 32.68 149.238 29.418 149.906 c 32.48 151.034
 33.613 153.234 33.613 155.097 c 33.613 157.425 30.949 159.156 27.621 159.156
 c 24.359 159.156 21.832 157.558 21.832 155.163 c 21.832 154.163 22.496 
153.632 23.363 153.632 c 24.293 153.632 24.895 154.296 24.895 155.097 c 
24.895 155.96 24.293 156.624 23.363 156.691 c 24.426 157.956 26.426 158.288
 27.555 158.288 c 28.887 158.288 30.75 157.624 30.75 155.097 c 30.75 153.831
 30.352 152.433 29.551 151.57 c 28.621 150.437 27.754 150.37 26.289 150.238
 c 25.559 150.171 25.492 150.171 25.359 150.171 c 25.293 150.171 25.027 
150.105 25.027 149.773 c 25.027 149.37 25.293 149.37 25.824 149.37 c h
f
44.34 149.37 m 46.668 149.37 48.332 147.777 48.332 144.581 c 48.332 140.921
 46.137 139.788 44.473 139.788 c 43.273 139.788 40.609 140.12 39.414 141.917
 c 40.812 141.917 41.145 142.917 41.145 143.581 c 41.145 144.515 40.41 145.179
 39.48 145.179 c 38.68 145.179 37.816 144.648 37.816 143.448 c 37.816 140.656
 40.879 138.859 44.473 138.859 c 48.598 138.859 51.457 141.652 51.457 144.581
 c 51.457 146.909 49.594 149.238 46.336 149.906 c 49.395 151.034 50.527 
153.234 50.527 155.097 c 50.527 157.425 47.863 159.156 44.539 159.156 c 
41.277 159.156 38.746 157.558 38.746 155.163 c 38.746 154.163 39.414 153.632
 40.277 153.632 c 41.211 153.632 41.809 154.296 41.809 155.097 c 41.809 
155.96 41.211 156.624 40.277 156.691 c 41.344 157.956 43.34 158.288 44.473
 158.288 c 45.801 158.288 47.664 157.624 47.664 155.097 c 47.664 153.831
 47.266 152.433 46.469 151.57 c 45.535 150.437 44.672 150.37 43.207 150.238
 c 42.477 150.171 42.406 150.171 42.273 150.171 c 42.207 150.171 41.941 
150.105 41.941 149.773 c 41.941 149.37 42.207 149.37 42.742 149.37 c h
f
Q Q
showpage
%%Trailer
end restore
%%EOF
